<?xml version="1.0" encoding="utf-8"?>
<!-- Generator: Adobe Illustrator 20.0.0, SVG Export Plug-In . SVG Version: 6.00 Build 0)  -->
<svg version="1.1" id="Layer_1" xmlns="http://www.w3.org/2000/svg" xmlns:xlink="http://www.w3.org/1999/xlink" x="0px" y="0px"
	 viewBox="0 0 185.2 39.1" style="enable-background:new 0 0 185.2 39.1;" xml:space="preserve">
<style type="text/css">
	.st0{fill:url(#SVGID_1_);stroke:#00A24C;stroke-width:0.3075;stroke-miterlimit:10;}
	.st1{fill:url(#SVGID_2_);stroke:#2B3B84;stroke-width:0.2725;stroke-miterlimit:10;}
	.st2{fill:#00A24C;}
	.st3{font-family:'MyriadPro-Regular';}
	.st4{font-size:5px;}
	.st5{font-family:'TimesNewRomanPSMT';}
	.st6{fill:none;stroke:#010202;stroke-width:0.142;stroke-miterlimit:10;}
	.st7{fill:#010202;}
	.st8{fill:#2B3B84;}
</style>
<linearGradient id="SVGID_1_" gradientUnits="userSpaceOnUse" x1="127.4863" y1="12.3313" x2="127.4863" y2="0">
	<stop  offset="0" style="stop-color:#FFFFFF;stop-opacity:0.3"/>
	<stop  offset="1" style="stop-color:#00A24C;stop-opacity:0.6"/>
</linearGradient>
<polyline class="st0" points="185.2,12.3 185.2,0 135.7,0 135.7,12.3 69.8,12.3 "/>
<linearGradient id="SVGID_2_" gradientUnits="userSpaceOnUse" x1="127.4863" y1="34.569" x2="127.4863" y2="22.2377">
	<stop  offset="0" style="stop-color:#FFFFFF;stop-opacity:0.3"/>
	<stop  offset="1" style="stop-color:#2B3B84;stop-opacity:0.6"/>
</linearGradient>
<polyline class="st1" points="69.8,34.6 74,34.6 74,22.2 81.1,22.2 81.1,34.6 127.9,34.6 127.9,22.2 135,22.2 135,34.6 185.2,34.6 
	"/>
<g>
	<text transform="matrix(1 0 0 1 0 12.3313)" class="st2 st3 st4">laser </text>
</g>
<g>
	<text transform="matrix(1 0 0 1 103.4788 29.1133)" class="st5 st4">τ</text>
	<g>
		<g>
			<g>
				<line class="st6" x1="110.3" y1="28" x2="126.9" y2="28"/>
				<g>
					<polygon class="st7" points="126.5,28.5 126.7,28 126.5,27.5 127.7,28 					"/>
				</g>
			</g>
		</g>
	</g>
	<g>
		<g>
			<g>
				<line class="st6" x1="98.7" y1="28" x2="82.1" y2="28"/>
				<g>
					<polygon class="st7" points="82.5,27.5 82.3,28 82.5,28.5 81.3,28 					"/>
				</g>
			</g>
		</g>
	</g>
</g>
<g>
	<text transform="matrix(1 0 0 1 5.722046e-05 34.7662)" class="st8 st3 st4">microwave</text>
</g>
<text transform="matrix(1 0 0 1 74.0972 39.0534)" class="st5 st4">π/2</text>
<text transform="matrix(1 0 0 1 128.2778 39.0534)" class="st5 st4">π/2</text>
<text transform="matrix(1 0 0 1 127.0282 45.3336)" class="st5 st4">3π/2</text>
</svg>
